(kicad_symbol_lib (version 20220914) (generator kicad_symbol_editor)
  (symbol "BC33725TA-dk_Transistors-Bipolar-BJT-Single" (pin_names (offset 0)) (in_bom yes) (on_board yes)
    (property "Reference" "Q" (at -3.2004 4.2164 0)
      (effects (font (size 1.524 1.524)) (justify left))
    )
    (property "Value" "dk_Transistors-Bipolar-BJT-Single_BC33725TA" (at 5.2324 0 90)
      (effects (font (size 1.524 1.524)))
    )
    (property "Footprint" "digikey-footprints:TO-92-3_Formed_Leads" (at 5.08 5.08 0)
      (effects (font (size 1.524 1.524)) (justify left) hide)
    )
    (property "Datasheet" "https://www.onsemi.com/pub/Collateral/BC338-D.pdf" (at 5.08 7.62 0)
      (effects (font (size 1.524 1.524)) (justify left) hide)
    )
    (property "Digi-Key_PN" "BC33725TACT-ND" (at 5.08 10.16 0)
      (effects (font (size 1.524 1.524)) (justify left) hide)
    )
    (property "MPN" "BC33725TA" (at 5.08 12.7 0)
      (effects (font (size 1.524 1.524)) (justify left) hide)
    )
    (property "Category" "Discrete Semiconductor Products" (at 5.08 15.24 0)
      (effects (font (size 1.524 1.524)) (justify left) hide)
    )
    (property "Family" "Transistors - Bipolar (BJT) - Single" (at 5.08 17.78 0)
      (effects (font (size 1.524 1.524)) (justify left) hide)
    )
    (property "DK_Datasheet_Link" "https://www.onsemi.com/pub/Collateral/BC338-D.pdf" (at 5.08 20.32 0)
      (effects (font (size 1.524 1.524)) (justify left) hide)
    )
    (property "DK_Detail_Page" "/product-detail/en/on-semiconductor/BC33725TA/BC33725TACT-ND/1532787" (at 5.08 22.86 0)
      (effects (font (size 1.524 1.524)) (justify left) hide)
    )
    (property "Description" "TRANS NPN 45V 0.8A TO-92" (at 5.08 25.4 0)
      (effects (font (size 1.524 1.524)) (justify left) hide)
    )
    (property "Manufacturer" "ON Semiconductor" (at 5.08 27.94 0)
      (effects (font (size 1.524 1.524)) (justify left) hide)
    )
    (property "Status" "Active" (at 5.08 30.48 0)
      (effects (font (size 1.524 1.524)) (justify left) hide)
    )
    (symbol "BC33725TA-dk_Transistors-Bipolar-BJT-Single_0_1"
      (polyline
        (pts
          (xy -3.81 0)
          (xy -2.54 0)
        )
        (stroke (width 0) (type solid))
        (fill (type none))
      )
      (polyline
        (pts
          (xy -3.556 0)
          (xy 0 0)
        )
        (stroke (width 0) (type solid))
        (fill (type none))
      )
      (polyline
        (pts
          (xy 0 -1.27)
          (xy 2.54 -2.54)
        )
        (stroke (width 0) (type solid))
        (fill (type none))
      )
      (polyline
        (pts
          (xy 0 1.27)
          (xy 2.54 2.54)
        )
        (stroke (width 0) (type solid))
        (fill (type none))
      )
      (polyline
        (pts
          (xy 0 2.54)
          (xy 0 -2.54)
        )
        (stroke (width 0) (type solid))
        (fill (type none))
      )
      (polyline
        (pts
          (xy 1.524 -1.27)
          (xy 2.032 -2.286)
          (xy 1.016 -2.54)
          (xy 1.524 -1.27)
        )
        (stroke (width 0) (type solid))
        (fill (type outline))
      )
      (circle (center 0 0) (radius 3.2512)
        (stroke (width 0) (type solid))
        (fill (type background))
      )
    )
    (symbol "BC33725TA-dk_Transistors-Bipolar-BJT-Single_1_1"
      (pin passive line (at 2.54 5.08 270) (length 2.54)
        (name "C" (effects (font (size 1.27 1.27))))
        (number "1" (effects (font (size 1.27 1.27))))
      )
      (pin input line (at -5.08 0 0) (length 2.54)
        (name "B" (effects (font (size 1.27 1.27))))
        (number "2" (effects (font (size 1.27 1.27))))
      )
      (pin passive line (at 2.54 -5.08 90) (length 2.54)
        (name "E" (effects (font (size 1.27 1.27))))
        (number "3" (effects (font (size 1.27 1.27))))
      )
    )
  )
  (symbol "ESP32_DevKit_V1_DOIT" (in_bom yes) (on_board yes)
    (property "Reference" "U" (at -11.43 34.29 0)
      (effects (font (size 1.27 1.27)))
    )
    (property "Value" "CustomLib_ESP32_DevKit_V1_DOIT" (at 11.43 34.29 0)
      (effects (font (size 1.27 1.27)))
    )
    (property "Footprint" "CustomLib:esp32_devkit_v1_doit" (at -11.43 34.29 0)
      (effects (font (size 1.27 1.27)))
    )
    (property "Datasheet" "" (at -11.43 34.29 0)
      (effects (font (size 1.27 1.27)) hide)
    )
    (property "ki_fp_filters" "esp32?devkit?v1?doit*" (at 0 0 0)
      (effects (font (size 1.27 1.27)) hide)
    )
    (symbol "ESP32_DevKit_V1_DOIT_1_1"
      (rectangle (start -12.7 33.02) (end 12.7 -33.02)
        (stroke (width 0.254) (type solid))
        (fill (type background))
      )
      (pin input line (at -15.24 30.48 0) (length 2.54)
        (name "EN" (effects (font (size 1.27 1.27))))
        (number "1" (effects (font (size 1.27 1.27))))
      )
      (pin bidirectional line (at 15.24 -17.78 180) (length 2.54)
        (name "IO27" (effects (font (size 1.27 1.27))))
        (number "10" (effects (font (size 1.27 1.27))))
      )
      (pin bidirectional line (at 15.24 10.16 180) (length 2.54)
        (name "IO14" (effects (font (size 1.27 1.27))))
        (number "11" (effects (font (size 1.27 1.27))))
      )
      (pin bidirectional line (at 15.24 15.24 180) (length 2.54)
        (name "IO12" (effects (font (size 1.27 1.27))))
        (number "12" (effects (font (size 1.27 1.27))))
      )
      (pin bidirectional line (at 15.24 12.7 180) (length 2.54)
        (name "IO13" (effects (font (size 1.27 1.27))))
        (number "13" (effects (font (size 1.27 1.27))))
      )
      (pin power_in line (at -2.54 -35.56 90) (length 2.54)
        (name "GND" (effects (font (size 1.27 1.27))))
        (number "14" (effects (font (size 1.27 1.27))))
      )
      (pin power_in line (at -2.54 35.56 270) (length 2.54)
        (name "VIN" (effects (font (size 1.27 1.27))))
        (number "15" (effects (font (size 1.27 1.27))))
      )
      (pin power_in line (at 0 35.56 270) (length 2.54)
        (name "3V3" (effects (font (size 1.27 1.27))))
        (number "16" (effects (font (size 1.27 1.27))))
      )
      (pin power_in line (at 0 -35.56 90) (length 2.54)
        (name "GND" (effects (font (size 1.27 1.27))))
        (number "17" (effects (font (size 1.27 1.27))))
      )
      (pin bidirectional line (at 15.24 7.62 180) (length 2.54)
        (name "IO15" (effects (font (size 1.27 1.27))))
        (number "18" (effects (font (size 1.27 1.27))))
      )
      (pin bidirectional line (at 15.24 25.4 180) (length 2.54)
        (name "IO2" (effects (font (size 1.27 1.27))))
        (number "19" (effects (font (size 1.27 1.27))))
      )
      (pin input line (at -15.24 25.4 0) (length 2.54)
        (name "SENSOR_VP" (effects (font (size 1.27 1.27))))
        (number "2" (effects (font (size 1.27 1.27))))
      )
      (pin bidirectional line (at 15.24 20.32 180) (length 2.54)
        (name "IO4" (effects (font (size 1.27 1.27))))
        (number "20" (effects (font (size 1.27 1.27))))
      )
      (pin bidirectional line (at 15.24 5.08 180) (length 2.54)
        (name "IO16" (effects (font (size 1.27 1.27))))
        (number "21" (effects (font (size 1.27 1.27))))
      )
      (pin bidirectional line (at 15.24 2.54 180) (length 2.54)
        (name "IO17" (effects (font (size 1.27 1.27))))
        (number "22" (effects (font (size 1.27 1.27))))
      )
      (pin bidirectional line (at 15.24 17.78 180) (length 2.54)
        (name "IO5" (effects (font (size 1.27 1.27))))
        (number "23" (effects (font (size 1.27 1.27))))
      )
      (pin bidirectional line (at 15.24 0 180) (length 2.54)
        (name "IO18" (effects (font (size 1.27 1.27))))
        (number "24" (effects (font (size 1.27 1.27))))
      )
      (pin bidirectional line (at 15.24 -2.54 180) (length 2.54)
        (name "IO19" (effects (font (size 1.27 1.27))))
        (number "25" (effects (font (size 1.27 1.27))))
      )
      (pin bidirectional line (at 15.24 -5.08 180) (length 2.54)
        (name "IO21" (effects (font (size 1.27 1.27))))
        (number "26" (effects (font (size 1.27 1.27))))
      )
      (pin bidirectional line (at 15.24 22.86 180) (length 2.54)
        (name "RXD0/IO3" (effects (font (size 1.27 1.27))))
        (number "27" (effects (font (size 1.27 1.27))))
      )
      (pin bidirectional line (at 15.24 27.94 180) (length 2.54)
        (name "TXD0/IO1" (effects (font (size 1.27 1.27))))
        (number "28" (effects (font (size 1.27 1.27))))
      )
      (pin bidirectional line (at 15.24 -7.62 180) (length 2.54)
        (name "IO22" (effects (font (size 1.27 1.27))))
        (number "29" (effects (font (size 1.27 1.27))))
      )
      (pin input line (at -15.24 22.86 0) (length 2.54)
        (name "SENSOR_VN" (effects (font (size 1.27 1.27))))
        (number "3" (effects (font (size 1.27 1.27))))
      )
      (pin bidirectional line (at 15.24 -10.16 180) (length 2.54)
        (name "IO23" (effects (font (size 1.27 1.27))))
        (number "30" (effects (font (size 1.27 1.27))))
      )
      (pin input line (at 15.24 -25.4 180) (length 2.54)
        (name "IO34" (effects (font (size 1.27 1.27))))
        (number "4" (effects (font (size 1.27 1.27))))
      )
      (pin input line (at 15.24 -27.94 180) (length 2.54)
        (name "IO35" (effects (font (size 1.27 1.27))))
        (number "5" (effects (font (size 1.27 1.27))))
      )
      (pin bidirectional line (at 15.24 -20.32 180) (length 2.54)
        (name "IO32" (effects (font (size 1.27 1.27))))
        (number "6" (effects (font (size 1.27 1.27))))
      )
      (pin bidirectional line (at 15.24 -22.86 180) (length 2.54)
        (name "IO33" (effects (font (size 1.27 1.27))))
        (number "7" (effects (font (size 1.27 1.27))))
      )
      (pin bidirectional line (at 15.24 -12.7 180) (length 2.54)
        (name "IO25" (effects (font (size 1.27 1.27))))
        (number "8" (effects (font (size 1.27 1.27))))
      )
      (pin bidirectional line (at 15.24 -15.24 180) (length 2.54)
        (name "IO26" (effects (font (size 1.27 1.27))))
        (number "9" (effects (font (size 1.27 1.27))))
      )
    )
  )
  (symbol "MAX3485" (pin_names (offset 1.016)) (in_bom yes) (on_board yes)
    (property "Reference" "U" (at -1.27 1.27 0)
      (effects (font (size 1.27 1.27)))
    )
    (property "Value" "CustomLib_MAX3485" (at 2.54 -6.35 90)
      (effects (font (size 1.27 1.27)))
    )
    (property "Footprint" "CustomLib:BME280" (at 0 1.27 0)
      (effects (font (size 1.27 1.27)) hide)
    )
    (property "Datasheet" "" (at 0 1.27 0)
      (effects (font (size 1.27 1.27)) hide)
    )
    (symbol "MAX3485_0_1"
      (rectangle (start -3.81 0) (end 8.89 -12.7)
        (stroke (width 0) (type solid))
        (fill (type none))
      )
    )
    (symbol "MAX3485_1_1"
      (pin power_in line (at -6.35 -1.27 0) (length 2.54)
        (name "GND" (effects (font (size 1.27 1.27))))
        (number "1" (effects (font (size 1.27 1.27))))
      )
      (pin passive line (at -6.35 -3.81 0) (length 2.54)
        (name "TXD" (effects (font (size 1.27 1.27))))
        (number "2" (effects (font (size 1.27 1.27))))
      )
      (pin passive line (at -6.35 -6.35 0) (length 2.54)
        (name "RXD" (effects (font (size 1.27 1.27))))
        (number "3" (effects (font (size 1.27 1.27))))
      )
      (pin power_in line (at -6.35 -8.89 0) (length 2.54)
        (name "VCC" (effects (font (size 1.27 1.27))))
        (number "4" (effects (font (size 1.27 1.27))))
      )
      (pin passive line (at -6.35 -11.43 0) (length 2.54)
        (name "EN" (effects (font (size 1.27 1.27))))
        (number "5" (effects (font (size 1.27 1.27))))
      )
      (pin passive line (at 11.43 -3.81 180) (length 2.54)
        (name "B" (effects (font (size 1.27 1.27))))
        (number "6" (effects (font (size 1.27 1.27))))
      )
      (pin passive line (at 11.43 -6.35 180) (length 2.54)
        (name "A" (effects (font (size 1.27 1.27))))
        (number "7" (effects (font (size 1.27 1.27))))
      )
      (pin passive line (at 11.43 -8.89 180) (length 2.54)
        (name "GND" (effects (font (size 1.27 1.27))))
        (number "8" (effects (font (size 1.27 1.27))))
      )
    )
  )
)
